{
  "kind": "collectionType",
  "collectionName": "jobs",
  "info": {
    "singularName": "job",
    "pluralName": "jobs",
    "displayName": "Job",
    "description": ""
  },
  "options": {
    "draftAndPublish": true
  },
  "pluginOptions": {},
  "attributes": {
    "company": {
      "type": "relation",
      "relation": "manyToOne",
      "target": "api::company.company",
      "inversedBy": "jobs"
    },
    "title": {
      "type": "string"
    },
    "location": {
      "type": "string"
    },
    "jobLink": {
      "type": "text"
    },
    "applyLink": {
      "type": "text"
    },
    "feedJwJob": {
      "type": "relation",
      "relation": "oneToOne",
      "target": "api::feed-jw-job.feed-jw-job",
      "mappedBy": "job"
    },
    "onlineDate": {
      "type": "datetime"
    },
    "jobId": {
      "type": "customField",
      "customField": "plugin::field-uuid.uuid"
    }
  }
}
