{
  "kind": "collectionType",
  "collectionName": "jobpools",
  "info": {
    "singularName": "jobpool",
    "pluralName": "jobpools",
    "displayName": "Jobpool",
    "description": ""
  },
  "options": {
    "draftAndPublish": false
  },
  "pluginOptions": {},
  "attributes": {
    "jobId": {
      "type": "string",
      "unique": true
    },
    "title": {
      "type": "string"
    },
    "companyName": {
      "type": "string"
    },
    "url": {
      "type": "text"
    },
    "location": {
      "type": "string"
    },
    "date": {
      "type": "datetime"
    },
    "html": {
      "type": "media",
      "multiple": false,
      "required": false,
      "allowedTypes": [
        "files"
      ]
    },
    "hasHtml": {
      "type": "boolean",
      "default": false
    },
    "isOnline": {
      "type": "boolean"
    },
    "dateLastCheck": {
      "type": "datetime"
    },
    "data": {
      "type": "json"
    },
    "normalizedTitle": {
      "type": "string"
    },
    "normalizedCompanyName": {
      "type": "string"
    },
    "normalizedLocation": {
      "type": "string"
    },
    "trackedBy": {
      "type": "string"
    },
    "Ats": {
      "type": "string"
    },
    "applyPhone": {
      "type": "string"
    },
    "applyEmail": {
      "type": "string"
    },
    "applyLink": {
      "type": "text"
    },
    "parsed": {
      "type": "boolean",
      "default": false
    },
    "mailSent": {
      "type": "boolean",
      "default": false
    }
  }
}
